--------------------- Cluster Manager health check ----------------------
Checking assigned node set: node004.cm.cluster
All health checks succeeded.
-----------------------------------------------------------------------
Tue May  3 19:58:35 IST 2016
gcc  -o ./build/main ./src/*.c ./third_party/*.c -lm -std=c11 -g -O0 -Wall -Wextra -Werror 
\nENDPOINTS

	hash:oft_sha3 endpoints:1 size:32 rekey:0 init:0 print:0 batch:1
real 0.00
user 0.00
sys 0.00

	hash:oft_sha3 endpoints:2 size:32 rekey:0 init:0 print:0 batch:1
real 0.00
user 0.00
sys 0.00

	hash:oft_sha3 endpoints:4 size:32 rekey:0 init:0 print:0 batch:1
real 0.00
user 0.00
sys 0.00

	hash:oft_sha3 endpoints:8 size:32 rekey:0 init:0 print:0 batch:1
real 0.00
user 0.00
sys 0.00

	hash:oft_sha3 endpoints:16 size:32 rekey:0 init:0 print:0 batch:1
real 0.00
user 0.00
sys 0.00

	hash:oft_sha3 endpoints:32 size:32 rekey:0 init:0 print:0 batch:1
real 0.00
user 0.00
sys 0.00

	hash:oft_sha3 endpoints:64 size:32 rekey:0 init:0 print:0 batch:1
real 0.00
user 0.00
sys 0.00

	hash:oft_sha3 endpoints:128 size:32 rekey:0 init:0 print:0 batch:1
real 0.00
user 0.00
sys 0.00

	hash:oft_sha3 endpoints:256 size:32 rekey:0 init:0 print:0 batch:1
real 0.00
user 0.00
sys 0.00

	hash:oft_sha3 endpoints:512 size:32 rekey:0 init:0 print:0 batch:1
real 0.00
user 0.00
sys 0.00

	hash:oft_sha3 endpoints:1024 size:32 rekey:0 init:0 print:0 batch:1
real 0.00
user 0.00
sys 0.00

	hash:oft_sha3 endpoints:2048 size:32 rekey:0 init:0 print:0 batch:1
real 0.00
user 0.00
sys 0.00

	hash:oft_sha3 endpoints:4096 size:32 rekey:0 init:0 print:0 batch:1
real 0.00
user 0.00
sys 0.00

	hash:oft_sha3 endpoints:8192 size:32 rekey:0 init:0 print:0 batch:1
real 0.00
user 0.00
sys 0.00

	hash:oft_sha3 endpoints:16384 size:32 rekey:0 init:0 print:0 batch:1
real 0.00
user 0.00
sys 0.00

	hash:oft_sha3 endpoints:32768 size:32 rekey:0 init:0 print:0 batch:1
real 0.00
user 0.00
sys 0.00

	hash:oft_sha3 endpoints:65536 size:32 rekey:0 init:0 print:0 batch:1
real 0.00
user 0.00
sys 0.00

	hash:oft_sha3 endpoints:131072 size:32 rekey:0 init:0 print:0 batch:1
real 0.00
user 0.00
sys 0.00

	hash:oft_sha3 endpoints:262144 size:32 rekey:0 init:0 print:0 batch:1
real 0.00
user 0.00
sys 0.00

	hash:oft_sha3 endpoints:524288 size:32 rekey:0 init:0 print:0 batch:1
real 0.00
user 0.00
sys 0.00

	hash:oft_sha3 endpoints:1048576 size:32 rekey:0 init:0 print:0 batch:1
real 0.00
user 0.00
sys 0.00

	hash:oft_sha3 endpoints:2097152 size:32 rekey:0 init:0 print:0 batch:1
real 0.00
user 0.00
sys 0.00

	hash:oft_sha3 endpoints:4194304 size:32 rekey:0 init:0 print:0 batch:1
real 0.00
user 0.00
sys 0.00
\nREKEY

	hash:oft_sha3 endpoints:4194304 size:32 rekey:0 init:0 print:0 batch:1
real 0.00
user 0.00
sys 0.00

	hash:oft_sha3 endpoints:4194304 size:32 rekey:1 init:0 print:0 batch:1
real 0.00
user 0.00
sys 0.00

	hash:oft_sha3 endpoints:4194304 size:32 rekey:2 init:0 print:0 batch:1
real 0.00
user 0.00
sys 0.00

	hash:oft_sha3 endpoints:4194304 size:32 rekey:4 init:0 print:0 batch:1
real 0.00
user 0.00
sys 0.00

	hash:oft_sha3 endpoints:4194304 size:32 rekey:8 init:0 print:0 batch:1
real 0.00
user 0.00
sys 0.00

	hash:oft_sha3 endpoints:4194304 size:32 rekey:16 init:0 print:0 batch:1
real 0.01
user 0.00
sys 0.00

	hash:oft_sha3 endpoints:4194304 size:32 rekey:32 init:0 print:0 batch:1
real 0.02
user 0.01
sys 0.00

	hash:oft_sha3 endpoints:4194304 size:32 rekey:64 init:0 print:0 batch:1
real 0.04
user 0.03
sys 0.00

	hash:oft_sha3 endpoints:4194304 size:32 rekey:128 init:0 print:0 batch:1
real 0.07
user 0.06
sys 0.00

	hash:oft_sha3 endpoints:4194304 size:32 rekey:256 init:0 print:0 batch:1
real 0.14
user 0.13
sys 0.01

	hash:oft_sha3 endpoints:4194304 size:32 rekey:512 init:0 print:0 batch:1
real 0.29
user 0.26
sys 0.02

	hash:oft_sha3 endpoints:4194304 size:32 rekey:1024 init:0 print:0 batch:1
real 0.55
user 0.50
sys 0.04

	hash:oft_sha3 endpoints:4194304 size:32 rekey:2048 init:0 print:0 batch:1
real 0.70
user 0.64
sys 0.05

	hash:oft_sha3 endpoints:4194304 size:32 rekey:4096 init:0 print:0 batch:1
real 1.59
user 1.46
sys 0.12

	hash:oft_sha3 endpoints:4194304 size:32 rekey:8192 init:0 print:0 batch:1
real 2.02
user 1.87
sys 0.14

	hash:oft_sha3 endpoints:4194304 size:32 rekey:16384 init:0 print:0 batch:1
real 4.01
user 3.68
sys 0.33

	hash:oft_sha3 endpoints:4194304 size:32 rekey:32768 init:0 print:0 batch:1
real 6.36
user 5.95
sys 0.40

	hash:oft_sha3 endpoints:4194304 size:32 rekey:65536 init:0 print:0 batch:1
real 11.10
user 10.50
sys 0.60

	hash:oft_sha3 endpoints:4194304 size:32 rekey:131072 init:0 print:0 batch:1
real 19.22
user 18.21
sys 1.00

	hash:oft_sha3 endpoints:4194304 size:32 rekey:262144 init:0 print:0 batch:1
real 32.77
user 30.99
sys 1.77

	hash:oft_sha3 endpoints:4194304 size:32 rekey:524288 init:0 print:0 batch:1
real 54.53
user 51.21
sys 3.30

	hash:oft_sha3 endpoints:4194304 size:32 rekey:1048576 init:0 print:0 batch:1
real 88.05
user 81.60
sys 6.43

	hash:oft_sha3 endpoints:4194304 size:32 rekey:2097152 init:0 print:0 batch:1
real 134.01
user 121.35
sys 12.64

	hash:oft_sha3 endpoints:4194304 size:32 rekey:4194304 init:0 print:0 batch:1
real 185.82
user 160.95
sys 24.83
\nKEYSIZE

	hash:oft_sha3 endpoints:4194304 size:1 rekey:1 init:0 print:0 batch:1
real 0.00
user 0.00
sys 0.00

	hash:oft_sha3 endpoints:4194304 size:2 rekey:1 init:0 print:0 batch:1
real 0.00
user 0.00
sys 0.00

	hash:oft_sha3 endpoints:4194304 size:4 rekey:1 init:0 print:0 batch:1
real 0.00
user 0.00
sys 0.00

	hash:oft_sha3 endpoints:4194304 size:8 rekey:1 init:0 print:0 batch:1
real 0.00
user 0.00
sys 0.00

	hash:oft_sha3 endpoints:4194304 size:16 rekey:1 init:0 print:0 batch:1
real 0.00
user 0.00
sys 0.00

	hash:oft_sha3 endpoints:4194304 size:32 rekey:1 init:0 print:0 batch:1
real 0.00
user 0.00
sys 0.00

	hash:oft_sha3 endpoints:4194304 size:64 rekey:1 init:0 print:0 batch:1
real 0.00
user 0.00
sys 0.00
