--------------------- Cluster Manager health check ----------------------
Checking assigned node set: node004.cm.cluster
All health checks succeeded.
-----------------------------------------------------------------------
Tue May  3 21:07:35 IST 2016
gcc  -o ./build/main ./src/*.c ./third_party/*.c -lm -std=c11 -g -O0 -Wall -Wextra -Werror 
\nENDPOINTS

	hash:oft_blake2s endpoints:1 size:32 rekey:0 init:0 print:0 batch:1
real 0.00
user 0.00
sys 0.00

	hash:oft_blake2s endpoints:2 size:32 rekey:0 init:0 print:0 batch:1
real 0.00
user 0.00
sys 0.00

	hash:oft_blake2s endpoints:4 size:32 rekey:0 init:0 print:0 batch:1
real 0.00
user 0.00
sys 0.00

	hash:oft_blake2s endpoints:8 size:32 rekey:0 init:0 print:0 batch:1
real 0.00
user 0.00
sys 0.00

	hash:oft_blake2s endpoints:16 size:32 rekey:0 init:0 print:0 batch:1
real 0.00
user 0.00
sys 0.00

	hash:oft_blake2s endpoints:32 size:32 rekey:0 init:0 print:0 batch:1
real 0.00
user 0.00
sys 0.00

	hash:oft_blake2s endpoints:64 size:32 rekey:0 init:0 print:0 batch:1
real 0.00
user 0.00
sys 0.00

	hash:oft_blake2s endpoints:128 size:32 rekey:0 init:0 print:0 batch:1
real 0.00
user 0.00
sys 0.00

	hash:oft_blake2s endpoints:256 size:32 rekey:0 init:0 print:0 batch:1
real 0.00
user 0.00
sys 0.00

	hash:oft_blake2s endpoints:512 size:32 rekey:0 init:0 print:0 batch:1
real 0.00
user 0.00
sys 0.00

	hash:oft_blake2s endpoints:1024 size:32 rekey:0 init:0 print:0 batch:1
real 0.00
user 0.00
sys 0.00

	hash:oft_blake2s endpoints:2048 size:32 rekey:0 init:0 print:0 batch:1
real 0.00
user 0.00
sys 0.00

	hash:oft_blake2s endpoints:4096 size:32 rekey:0 init:0 print:0 batch:1
real 0.00
user 0.00
sys 0.00

	hash:oft_blake2s endpoints:8192 size:32 rekey:0 init:0 print:0 batch:1
real 0.00
user 0.00
sys 0.00

	hash:oft_blake2s endpoints:16384 size:32 rekey:0 init:0 print:0 batch:1
real 0.00
user 0.00
sys 0.00

	hash:oft_blake2s endpoints:32768 size:32 rekey:0 init:0 print:0 batch:1
real 0.00
user 0.00
sys 0.00

	hash:oft_blake2s endpoints:65536 size:32 rekey:0 init:0 print:0 batch:1
real 0.00
user 0.00
sys 0.00

	hash:oft_blake2s endpoints:131072 size:32 rekey:0 init:0 print:0 batch:1
real 0.00
user 0.00
sys 0.00

	hash:oft_blake2s endpoints:262144 size:32 rekey:0 init:0 print:0 batch:1
real 0.00
user 0.00
sys 0.00

	hash:oft_blake2s endpoints:524288 size:32 rekey:0 init:0 print:0 batch:1
real 0.00
user 0.00
sys 0.00

	hash:oft_blake2s endpoints:1048576 size:32 rekey:0 init:0 print:0 batch:1
real 0.00
user 0.00
sys 0.00

	hash:oft_blake2s endpoints:2097152 size:32 rekey:0 init:0 print:0 batch:1
real 0.00
user 0.00
sys 0.00

	hash:oft_blake2s endpoints:4194304 size:32 rekey:0 init:0 print:0 batch:1
real 0.00
user 0.00
sys 0.00
\nREKEY

	hash:oft_blake2s endpoints:4194304 size:32 rekey:0 init:0 print:0 batch:1
real 0.00
user 0.00
sys 0.00

	hash:oft_blake2s endpoints:4194304 size:32 rekey:1 init:0 print:0 batch:1
real 0.00
user 0.00
sys 0.00

	hash:oft_blake2s endpoints:4194304 size:32 rekey:2 init:0 print:0 batch:1
real 0.00
user 0.00
sys 0.00

	hash:oft_blake2s endpoints:4194304 size:32 rekey:4 init:0 print:0 batch:1
real 0.00
user 0.00
sys 0.00

	hash:oft_blake2s endpoints:4194304 size:32 rekey:8 init:0 print:0 batch:1
real 0.00
user 0.00
sys 0.00

	hash:oft_blake2s endpoints:4194304 size:32 rekey:16 init:0 print:0 batch:1
real 0.00
user 0.00
sys 0.00

	hash:oft_blake2s endpoints:4194304 size:32 rekey:32 init:0 print:0 batch:1
real 0.00
user 0.00
sys 0.00

	hash:oft_blake2s endpoints:4194304 size:32 rekey:64 init:0 print:0 batch:1
real 0.01
user 0.00
sys 0.00

	hash:oft_blake2s endpoints:4194304 size:32 rekey:128 init:0 print:0 batch:1
real 0.02
user 0.01
sys 0.00

	hash:oft_blake2s endpoints:4194304 size:32 rekey:256 init:0 print:0 batch:1
real 0.04
user 0.03
sys 0.01

	hash:oft_blake2s endpoints:4194304 size:32 rekey:512 init:0 print:0 batch:1
real 0.10
user 0.09
sys 0.01

	hash:oft_blake2s endpoints:4194304 size:32 rekey:1024 init:0 print:0 batch:1
real 0.19
user 0.14
sys 0.04

	hash:oft_blake2s endpoints:4194304 size:32 rekey:2048 init:0 print:0 batch:1
real 0.29
user 0.23
sys 0.06

	hash:oft_blake2s endpoints:4194304 size:32 rekey:4096 init:0 print:0 batch:1
real 0.46
user 0.33
sys 0.12

	hash:oft_blake2s endpoints:4194304 size:32 rekey:8192 init:0 print:0 batch:1
real 0.76
user 0.54
sys 0.21

	hash:oft_blake2s endpoints:4194304 size:32 rekey:16384 init:0 print:0 batch:1
real 1.16
user 0.84
sys 0.32

	hash:oft_blake2s endpoints:4194304 size:32 rekey:32768 init:0 print:0 batch:1
real 1.60
user 1.18
sys 0.41

	hash:oft_blake2s endpoints:4194304 size:32 rekey:65536 init:0 print:0 batch:1
real 2.40
user 1.81
sys 0.59

	hash:oft_blake2s endpoints:4194304 size:32 rekey:131072 init:0 print:0 batch:1
real 3.99
user 2.99
sys 1.00

	hash:oft_blake2s endpoints:4194304 size:32 rekey:262144 init:0 print:0 batch:1
real 6.98
user 5.01
sys 1.96

	hash:oft_blake2s endpoints:4194304 size:32 rekey:524288 init:0 print:0 batch:1
real 10.97
user 7.60
sys 3.36

	hash:oft_blake2s endpoints:4194304 size:32 rekey:1048576 init:0 print:0 batch:1
real 17.87
user 11.35
sys 6.51

	hash:oft_blake2s endpoints:4194304 size:32 rekey:2097152 init:0 print:0 batch:1
real 29.43
user 16.71
sys 12.71

	hash:oft_blake2s endpoints:4194304 size:32 rekey:4194304 init:0 print:0 batch:1
real 46.67
user 21.44
sys 25.22
\nKEYSIZE

	hash:oft_blake2s endpoints:4194304 size:1 rekey:1 init:0 print:0 batch:1
real 0.00
user 0.00
sys 0.00

	hash:oft_blake2s endpoints:4194304 size:2 rekey:1 init:0 print:0 batch:1
real 0.00
user 0.00
sys 0.00

	hash:oft_blake2s endpoints:4194304 size:4 rekey:1 init:0 print:0 batch:1
real 0.00
user 0.00
sys 0.00

	hash:oft_blake2s endpoints:4194304 size:8 rekey:1 init:0 print:0 batch:1
real 0.00
user 0.00
sys 0.00

	hash:oft_blake2s endpoints:4194304 size:16 rekey:1 init:0 print:0 batch:1
real 0.00
user 0.00
sys 0.00

	hash:oft_blake2s endpoints:4194304 size:32 rekey:1 init:0 print:0 batch:1
real 0.00
user 0.00
sys 0.00

	hash:oft_blake2s endpoints:4194304 size:64 rekey:1 init:0 print:0 batch:1
real 0.00
user 0.00
sys 0.00
