--------------------- Cluster Manager health check ----------------------
Checking assigned node set: node004.cm.cluster
All health checks succeeded.
-----------------------------------------------------------------------
Tue May  3 20:25:06 IST 2016
gcc  -o ./build/main ./src/*.c ./third_party/*.c -lm -std=c11 -g -O0 -Wall -Wextra -Werror 
\nENDPOINTS

	hash:oft_blake2s endpoints:1 size:32 rekey:0 init:0 print:0 batch:0
real 0.00
user 0.00
sys 0.00

	hash:oft_blake2s endpoints:2 size:32 rekey:0 init:0 print:0 batch:0
real 0.00
user 0.00
sys 0.00

	hash:oft_blake2s endpoints:4 size:32 rekey:0 init:0 print:0 batch:0
real 0.00
user 0.00
sys 0.00

	hash:oft_blake2s endpoints:8 size:32 rekey:0 init:0 print:0 batch:0
real 0.00
user 0.00
sys 0.00

	hash:oft_blake2s endpoints:16 size:32 rekey:0 init:0 print:0 batch:0
real 0.00
user 0.00
sys 0.00

	hash:oft_blake2s endpoints:32 size:32 rekey:0 init:0 print:0 batch:0
real 0.00
user 0.00
sys 0.00

	hash:oft_blake2s endpoints:64 size:32 rekey:0 init:0 print:0 batch:0
real 0.00
user 0.00
sys 0.00

	hash:oft_blake2s endpoints:128 size:32 rekey:0 init:0 print:0 batch:0
real 0.00
user 0.00
sys 0.00

	hash:oft_blake2s endpoints:256 size:32 rekey:0 init:0 print:0 batch:0
real 0.00
user 0.00
sys 0.00

	hash:oft_blake2s endpoints:512 size:32 rekey:0 init:0 print:0 batch:0
real 0.00
user 0.00
sys 0.00

	hash:oft_blake2s endpoints:1024 size:32 rekey:0 init:0 print:0 batch:0
real 0.00
user 0.00
sys 0.00

	hash:oft_blake2s endpoints:2048 size:32 rekey:0 init:0 print:0 batch:0
real 0.00
user 0.00
sys 0.00

	hash:oft_blake2s endpoints:4096 size:32 rekey:0 init:0 print:0 batch:0
real 0.00
user 0.00
sys 0.00

	hash:oft_blake2s endpoints:8192 size:32 rekey:0 init:0 print:0 batch:0
real 0.00
user 0.00
sys 0.00

	hash:oft_blake2s endpoints:16384 size:32 rekey:0 init:0 print:0 batch:0
real 0.00
user 0.00
sys 0.00

	hash:oft_blake2s endpoints:32768 size:32 rekey:0 init:0 print:0 batch:0
real 0.00
user 0.00
sys 0.00

	hash:oft_blake2s endpoints:65536 size:32 rekey:0 init:0 print:0 batch:0
real 0.00
user 0.00
sys 0.00

	hash:oft_blake2s endpoints:131072 size:32 rekey:0 init:0 print:0 batch:0
real 0.00
user 0.00
sys 0.00

	hash:oft_blake2s endpoints:262144 size:32 rekey:0 init:0 print:0 batch:0
real 0.00
user 0.00
sys 0.00

	hash:oft_blake2s endpoints:524288 size:32 rekey:0 init:0 print:0 batch:0
real 0.00
user 0.00
sys 0.00

	hash:oft_blake2s endpoints:1048576 size:32 rekey:0 init:0 print:0 batch:0
real 0.00
user 0.00
sys 0.00

	hash:oft_blake2s endpoints:2097152 size:32 rekey:0 init:0 print:0 batch:0
real 0.00
user 0.00
sys 0.00

	hash:oft_blake2s endpoints:4194304 size:32 rekey:0 init:0 print:0 batch:0
real 0.00
user 0.00
sys 0.00
\nREKEY

	hash:oft_blake2s endpoints:4194304 size:32 rekey:0 init:0 print:0 batch:0
real 0.00
user 0.00
sys 0.00

	hash:oft_blake2s endpoints:4194304 size:32 rekey:1 init:0 print:0 batch:0
real 0.00
user 0.00
sys 0.00

	hash:oft_blake2s endpoints:4194304 size:32 rekey:2 init:0 print:0 batch:0
real 0.00
user 0.00
sys 0.00

	hash:oft_blake2s endpoints:4194304 size:32 rekey:4 init:0 print:0 batch:0
real 0.00
user 0.00
sys 0.00

	hash:oft_blake2s endpoints:4194304 size:32 rekey:8 init:0 print:0 batch:0
real 0.00
user 0.00
sys 0.00

	hash:oft_blake2s endpoints:4194304 size:32 rekey:16 init:0 print:0 batch:0
real 0.00
user 0.00
sys 0.00

	hash:oft_blake2s endpoints:4194304 size:32 rekey:32 init:0 print:0 batch:0
real 0.00
user 0.00
sys 0.00

	hash:oft_blake2s endpoints:4194304 size:32 rekey:64 init:0 print:0 batch:0
real 0.00
user 0.00
sys 0.00

	hash:oft_blake2s endpoints:4194304 size:32 rekey:128 init:0 print:0 batch:0
real 0.01
user 0.00
sys 0.01

	hash:oft_blake2s endpoints:4194304 size:32 rekey:256 init:0 print:0 batch:0
real 0.03
user 0.02
sys 0.01

	hash:oft_blake2s endpoints:4194304 size:32 rekey:512 init:0 print:0 batch:0
real 0.06
user 0.03
sys 0.02

	hash:oft_blake2s endpoints:4194304 size:32 rekey:1024 init:0 print:0 batch:0
real 0.12
user 0.08
sys 0.03

	hash:oft_blake2s endpoints:4194304 size:32 rekey:2048 init:0 print:0 batch:0
real 0.23
user 0.16
sys 0.06

	hash:oft_blake2s endpoints:4194304 size:32 rekey:4096 init:0 print:0 batch:0
real 0.45
user 0.33
sys 0.11

	hash:oft_blake2s endpoints:4194304 size:32 rekey:8192 init:0 print:0 batch:0
real 0.85
user 0.66
sys 0.19

	hash:oft_blake2s endpoints:4194304 size:32 rekey:16384 init:0 print:0 batch:0
real 1.54
user 1.23
sys 0.30

	hash:oft_blake2s endpoints:4194304 size:32 rekey:32768 init:0 print:0 batch:0
real 2.54
user 2.06
sys 0.47

	hash:oft_blake2s endpoints:4194304 size:32 rekey:65536 init:0 print:0 batch:0
real 4.07
user 3.40
sys 0.66

	hash:oft_blake2s endpoints:4194304 size:32 rekey:131072 init:0 print:0 batch:0
real 8.01
user 6.95
sys 1.05

	hash:oft_blake2s endpoints:4194304 size:32 rekey:262144 init:0 print:0 batch:0
real 15.64
user 13.66
sys 1.97

	hash:oft_blake2s endpoints:4194304 size:32 rekey:524288 init:0 print:0 batch:0
real 32.56
user 28.66
sys 3.89

	hash:oft_blake2s endpoints:4194304 size:32 rekey:1048576 init:0 print:0 batch:0
real 72.76
user 63.85
sys 8.89

	hash:oft_blake2s endpoints:4194304 size:32 rekey:2097152 init:0 print:0 batch:0
real 151.90
user 132.91
sys 18.96

	hash:oft_blake2s endpoints:4194304 size:32 rekey:4194304 init:0 print:0 batch:0
real 302.92
user 265.77
sys 37.10
\nKEYSIZE

	hash:oft_blake2s endpoints:4194304 size:1 rekey:1 init:0 print:0 batch:0
real 0.00
user 0.00
sys 0.00

	hash:oft_blake2s endpoints:4194304 size:2 rekey:1 init:0 print:0 batch:0
real 0.00
user 0.00
sys 0.00

	hash:oft_blake2s endpoints:4194304 size:4 rekey:1 init:0 print:0 batch:0
real 0.00
user 0.00
sys 0.00

	hash:oft_blake2s endpoints:4194304 size:8 rekey:1 init:0 print:0 batch:0
real 0.00
user 0.00
sys 0.00

	hash:oft_blake2s endpoints:4194304 size:16 rekey:1 init:0 print:0 batch:0
real 0.00
user 0.00
sys 0.00

	hash:oft_blake2s endpoints:4194304 size:32 rekey:1 init:0 print:0 batch:0
real 0.00
user 0.00
sys 0.00

	hash:oft_blake2s endpoints:4194304 size:64 rekey:1 init:0 print:0 batch:0
real 0.00
user 0.00
sys 0.00
