--------------------- Cluster Manager health check ----------------------
Checking assigned node set: node004.cm.cluster
All health checks succeeded.
-----------------------------------------------------------------------
Wed May  4 17:11:06 IST 2016
gcc  -o ./build/main ./src/*.c ./third_party/*.c -lm -std=c11 -g -O0 -Wall -Wextra -Werror 

REKEY TEN

	hash:oft_blake2s endpoints:4194304 size:1 rekey:4194304 init:0 print:0 batch:1
real 26.19
user 18.88
sys 7.31

	hash:oft_blake2s endpoints:4194304 size:2 rekey:4194304 init:0 print:0 batch:1
real 26.07
user 18.74
sys 7.32

	hash:oft_blake2s endpoints:4194304 size:3 rekey:4194304 init:0 print:0 batch:1
real 25.74
user 18.46
sys 7.27

	hash:oft_blake2s endpoints:4194304 size:4 rekey:4194304 init:0 print:0 batch:1
real 25.90
user 18.62
sys 7.27

	hash:oft_blake2s endpoints:4194304 size:5 rekey:4194304 init:0 print:0 batch:1
real 25.95
user 18.62
sys 7.32

	hash:oft_blake2s endpoints:4194304 size:6 rekey:4194304 init:0 print:0 batch:1
real 26.19
user 18.95
sys 7.23

	hash:oft_blake2s endpoints:4194304 size:7 rekey:4194304 init:0 print:0 batch:1
real 26.54
user 19.14
sys 7.39

	hash:oft_blake2s endpoints:4194304 size:8 rekey:4194304 init:0 print:0 batch:1
real 26.60
user 19.29
sys 7.30

	hash:oft_blake2s endpoints:4194304 size:9 rekey:4194304 init:0 print:0 batch:1
real 26.97
user 19.52
sys 7.43

	hash:oft_blake2s endpoints:4194304 size:10 rekey:4194304 init:0 print:0 batch:1
real 27.01
user 19.51
sys 7.49

	hash:oft_blake2s endpoints:4194304 size:11 rekey:4194304 init:0 print:0 batch:1
real 32.53
user 19.45
sys 13.08

	hash:oft_blake2s endpoints:4194304 size:12 rekey:4194304 init:0 print:0 batch:1
real 32.55
user 19.48
sys 13.05

	hash:oft_blake2s endpoints:4194304 size:13 rekey:4194304 init:0 print:0 batch:1
real 33.31
user 19.94
sys 13.36

	hash:oft_blake2s endpoints:4194304 size:14 rekey:4194304 init:0 print:0 batch:1
real 32.84
user 19.58
sys 13.24

	hash:oft_blake2s endpoints:4194304 size:15 rekey:4194304 init:0 print:0 batch:1
real 33.44
user 19.95
sys 13.48

	hash:oft_blake2s endpoints:4194304 size:16 rekey:4194304 init:0 print:0 batch:1
real 33.51
user 19.99
sys 13.50

	hash:oft_blake2s endpoints:4194304 size:17 rekey:4194304 init:0 print:0 batch:1
real 33.53
user 20.26
sys 13.26

	hash:oft_blake2s endpoints:4194304 size:18 rekey:4194304 init:0 print:0 batch:1
real 33.35
user 20.20
sys 13.14

	hash:oft_blake2s endpoints:4194304 size:20 rekey:4194304 init:0 print:0 batch:1
real 33.35
user 20.11
sys 13.23

	hash:oft_blake2s endpoints:4194304 size:21 rekey:4194304 init:0 print:0 batch:1
real 39.23
user 20.31
sys 18.90

	hash:oft_blake2s endpoints:4194304 size:22 rekey:4194304 init:0 print:0 batch:1
real 39.33
user 20.35
sys 18.96

	hash:oft_blake2s endpoints:4194304 size:23 rekey:4194304 init:0 print:0 batch:1
real 39.91
user 20.59
sys 19.31

	hash:oft_blake2s endpoints:4194304 size:24 rekey:4194304 init:0 print:0 batch:1
real 39.95
user 20.78
sys 19.15

	hash:oft_blake2s endpoints:4194304 size:25 rekey:4194304 init:0 print:0 batch:1
real 40.11
user 20.84
sys 19.26

	hash:oft_blake2s endpoints:4194304 size:26 rekey:4194304 init:0 print:0 batch:1
real 39.75
user 20.78
sys 18.95

	hash:oft_blake2s endpoints:4194304 size:27 rekey:4194304 init:0 print:0 batch:1
real 39.83
user 20.95
sys 18.86

	hash:oft_blake2s endpoints:4194304 size:28 rekey:4194304 init:0 print:0 batch:1
real 40.35
user 21.02
sys 19.32

	hash:oft_blake2s endpoints:4194304 size:29 rekey:4194304 init:0 print:0 batch:1
real 40.24
user 21.12
sys 19.11

	hash:oft_blake2s endpoints:4194304 size:30 rekey:4194304 init:0 print:0 batch:1
real 40.31
user 21.20
sys 19.10

	hash:oft_blake2s endpoints:4194304 size:31 rekey:4194304 init:0 print:0 batch:1
real 46.14
user 21.20
sys 24.93

	hash:oft_blake2s endpoints:4194304 size:32 rekey:4194304 init:0 print:0 batch:1
real 46.10
user 21.27
sys 24.81

	hash:oft_blake2s endpoints:4194304 size:33 rekey:4194304 init:0 print:0 batch:1
real 29.56
user 4.21
sys 25.34

	hash:oft_blake2s endpoints:4194304 size:34 rekey:4194304 init:0 print:0 batch:1
real 29.50
user 4.21
sys 25.28

	hash:oft_blake2s endpoints:4194304 size:35 rekey:4194304 init:0 print:0 batch:1
real 29.07
user 4.26
sys 24.80

	hash:oft_blake2s endpoints:4194304 size:36 rekey:4194304 init:0 print:0 batch:1
real 29.55
user 4.27
sys 25.27

	hash:oft_blake2s endpoints:4194304 size:37 rekey:4194304 init:0 print:0 batch:1
real 29.59
user 4.30
sys 25.29

	hash:oft_blake2s endpoints:4194304 size:38 rekey:4194304 init:0 print:0 batch:1
real 29.32
user 4.20
sys 25.10

	hash:oft_blake2s endpoints:4194304 size:39 rekey:4194304 init:0 print:0 batch:1
real 29.75
user 4.34
sys 25.41

	hash:oft_blake2s endpoints:4194304 size:40 rekey:4194304 init:0 print:0 batch:1
real 29.62
user 4.34
sys 25.27

	hash:oft_blake2s endpoints:4194304 size:41 rekey:4194304 init:0 print:0 batch:1
real 35.12
user 4.37
sys 30.74

	hash:oft_blake2s endpoints:4194304 size:42 rekey:4194304 init:0 print:0 batch:1
real 35.17
user 4.32
sys 30.84

	hash:oft_blake2s endpoints:4194304 size:43 rekey:4194304 init:0 print:0 batch:1
real 35.17
user 4.32
sys 30.84

	hash:oft_blake2s endpoints:4194304 size:44 rekey:4194304 init:0 print:0 batch:1
real 35.18
user 4.36
sys 30.81

	hash:oft_blake2s endpoints:4194304 size:45 rekey:4194304 init:0 print:0 batch:1
real 35.71
user 4.50
sys 31.20

	hash:oft_blake2s endpoints:4194304 size:46 rekey:4194304 init:0 print:0 batch:1
real 35.68
user 4.51
sys 31.16

	hash:oft_blake2s endpoints:4194304 size:47 rekey:4194304 init:0 print:0 batch:1
real 35.27
user 4.52
sys 30.74

	hash:oft_blake2s endpoints:4194304 size:48 rekey:4194304 init:0 print:0 batch:1
real 35.47
user 4.48
sys 30.98

	hash:oft_blake2s endpoints:4194304 size:49 rekey:4194304 init:0 print:0 batch:1
real 35.78
user 4.61
sys 31.16

	hash:oft_blake2s endpoints:4194304 size:50 rekey:4194304 init:0 print:0 batch:1
real 35.58
user 4.59
sys 30.98

	hash:oft_blake2s endpoints:4194304 size:51 rekey:4194304 init:0 print:0 batch:1
real 41.33
user 4.59
sys 36.72

	hash:oft_blake2s endpoints:4194304 size:52 rekey:4194304 init:0 print:0 batch:1
real 41.75
user 4.58
sys 37.16

	hash:oft_blake2s endpoints:4194304 size:53 rekey:4194304 init:0 print:0 batch:1
real 41.24
user 4.58
sys 36.65

	hash:oft_blake2s endpoints:4194304 size:54 rekey:4194304 init:0 print:0 batch:1
real 41.24
user 4.57
sys 36.66

	hash:oft_blake2s endpoints:4194304 size:55 rekey:4194304 init:0 print:0 batch:1
real 41.90
user 4.76
sys 37.13

	hash:oft_blake2s endpoints:4194304 size:56 rekey:4194304 init:0 print:0 batch:1
real 41.47
user 4.68
sys 36.78

	hash:oft_blake2s endpoints:4194304 size:57 rekey:4194304 init:0 print:0 batch:1
real 41.86
user 4.72
sys 37.13

	hash:oft_blake2s endpoints:4194304 size:58 rekey:4194304 init:0 print:0 batch:1
real 41.93
user 4.75
sys 37.17

	hash:oft_blake2s endpoints:4194304 size:59 rekey:4194304 init:0 print:0 batch:1
real 41.99
user 4.78
sys 37.20

	hash:oft_blake2s endpoints:4194304 size:60 rekey:4194304 init:0 print:0 batch:1
real 41.56
user 4.73
sys 36.83

	hash:oft_blake2s endpoints:4194304 size:61 rekey:4194304 init:0 print:0 batch:1
real 47.42
user 4.78
sys 42.62

	hash:oft_blake2s endpoints:4194304 size:62 rekey:4194304 init:0 print:0 batch:1
real 47.85
user 4.86
sys 42.98

	hash:oft_blake2s endpoints:4194304 size:63 rekey:4194304 init:0 print:0 batch:1
real 47.86
user 4.80
sys 43.05

	hash:oft_blake2s endpoints:4194304 size:64 rekey:4194304 init:0 print:0 batch:1
real 47.49
user 4.88
sys 42.59
=>> PBS: job killed: walltime 1839 exceeded limit 1800
make: *** [bench.keysize] Terminated
