--------------------- Cluster Manager health check ----------------------
Checking assigned node set: node004.cm.cluster
All health checks succeeded.
-----------------------------------------------------------------------
Tue May  3 18:31:05 IST 2016
gcc  -o ./build/main ./src/*.c ./third_party/*.c -lm -std=c11 -g -O0 -Wall -Wextra -Werror 
\nENDPOINTS

	hash:oft_sha3 endpoints:1 size:32 rekey:0 init:0 print:0 batch:1
real 0.00
user 0.00
sys 0.00

	hash:oft_sha3 endpoints:2 size:32 rekey:0 init:0 print:0 batch:1
real 0.00
user 0.00
sys 0.00

	hash:oft_sha3 endpoints:4 size:32 rekey:0 init:0 print:0 batch:1
real 0.00
user 0.00
sys 0.00

	hash:oft_sha3 endpoints:8 size:32 rekey:0 init:0 print:0 batch:1
real 0.00
user 0.00
sys 0.00

	hash:oft_sha3 endpoints:16 size:32 rekey:0 init:0 print:0 batch:1
real 0.00
user 0.00
sys 0.00

	hash:oft_sha3 endpoints:32 size:32 rekey:0 init:0 print:0 batch:1
real 0.00
user 0.00
sys 0.00

	hash:oft_sha3 endpoints:64 size:32 rekey:0 init:0 print:0 batch:1
real 0.00
user 0.00
sys 0.00

	hash:oft_sha3 endpoints:128 size:32 rekey:0 init:0 print:0 batch:1
real 0.00
user 0.00
sys 0.00

	hash:oft_sha3 endpoints:256 size:32 rekey:0 init:0 print:0 batch:1
real 0.00
user 0.00
sys 0.00

	hash:oft_sha3 endpoints:512 size:32 rekey:0 init:0 print:0 batch:1
real 0.00
user 0.00
sys 0.00

	hash:oft_sha3 endpoints:1024 size:32 rekey:0 init:0 print:0 batch:1
real 0.00
user 0.00
sys 0.00

	hash:oft_sha3 endpoints:2048 size:32 rekey:0 init:0 print:0 batch:1
real 0.00
user 0.00
sys 0.00

	hash:oft_sha3 endpoints:4096 size:32 rekey:0 init:0 print:0 batch:1
real 0.00
user 0.00
sys 0.00

	hash:oft_sha3 endpoints:8192 size:32 rekey:0 init:0 print:0 batch:1
real 0.00
user 0.00
sys 0.00

	hash:oft_sha3 endpoints:16384 size:32 rekey:0 init:0 print:0 batch:1
real 0.00
user 0.00
sys 0.00

	hash:oft_sha3 endpoints:32768 size:32 rekey:0 init:0 print:0 batch:1
real 0.00
user 0.00
sys 0.00

	hash:oft_sha3 endpoints:65536 size:32 rekey:0 init:0 print:0 batch:1
real 0.00
user 0.00
sys 0.00

	hash:oft_sha3 endpoints:131072 size:32 rekey:0 init:0 print:0 batch:1
real 0.00
user 0.00
sys 0.00

	hash:oft_sha3 endpoints:262144 size:32 rekey:0 init:0 print:0 batch:1
real 0.00
user 0.00
sys 0.00

	hash:oft_sha3 endpoints:524288 size:32 rekey:0 init:0 print:0 batch:1
real 0.00
user 0.00
sys 0.00

	hash:oft_sha3 endpoints:1048576 size:32 rekey:0 init:0 print:0 batch:1
real 0.00
user 0.00
sys 0.00

	hash:oft_sha3 endpoints:2097152 size:32 rekey:0 init:0 print:0 batch:1
real 0.00
user 0.00
sys 0.00

	hash:oft_sha3 endpoints:4194304 size:32 rekey:0 init:0 print:0 batch:1
real 0.00
user 0.00
sys 0.00
\nREKEY

	hash:oft_sha3 endpoints:4194304 size:32 rekey:0 init:0 print:0 batch:1
real 0.00
user 0.00
sys 0.00

	hash:oft_sha3 endpoints:4194304 size:32 rekey:1 init:0 print:0 batch:1
real 0.00
user 0.00
sys 0.00

	hash:oft_sha3 endpoints:4194304 size:32 rekey:2 init:0 print:0 batch:1
real 0.00
user 0.00
sys 0.00

	hash:oft_sha3 endpoints:4194304 size:32 rekey:4 init:0 print:0 batch:1
real 0.00
user 0.00
sys 0.00

	hash:oft_sha3 endpoints:4194304 size:32 rekey:8 init:0 print:0 batch:1
real 0.00
user 0.00
sys 0.00

	hash:oft_sha3 endpoints:4194304 size:32 rekey:16 init:0 print:0 batch:1
real 0.00
user 0.00
sys 0.00

	hash:oft_sha3 endpoints:4194304 size:32 rekey:32 init:0 print:0 batch:1
real 0.00
user 0.00
sys 0.00

	hash:oft_sha3 endpoints:4194304 size:32 rekey:64 init:0 print:0 batch:1
real 0.00
user 0.00
sys 0.00

	hash:oft_sha3 endpoints:4194304 size:32 rekey:128 init:0 print:0 batch:1
real 0.01
user 0.00
sys 0.00

	hash:oft_sha3 endpoints:4194304 size:32 rekey:256 init:0 print:0 batch:1
real 0.01
user 0.01
sys 0.00

	hash:oft_sha3 endpoints:4194304 size:32 rekey:512 init:0 print:0 batch:1
real 0.03
user 0.02
sys 0.00

	hash:oft_sha3 endpoints:4194304 size:32 rekey:1024 init:0 print:0 batch:1
real 0.06
user 0.06
sys 0.00

	hash:oft_sha3 endpoints:4194304 size:32 rekey:2048 init:0 print:0 batch:1
real 0.13
user 0.11
sys 0.01

	hash:oft_sha3 endpoints:4194304 size:32 rekey:4096 init:0 print:0 batch:1
real 0.27
user 0.23
sys 0.03

	hash:oft_sha3 endpoints:4194304 size:32 rekey:8192 init:0 print:0 batch:1
real 0.54
user 0.45
sys 0.08

	hash:oft_sha3 endpoints:4194304 size:32 rekey:16384 init:0 print:0 batch:1
real 0.77
user 0.67
sys 0.10

	hash:oft_sha3 endpoints:4194304 size:32 rekey:32768 init:0 print:0 batch:1
real 1.44
user 1.24
sys 0.19

	hash:oft_sha3 endpoints:4194304 size:32 rekey:65536 init:0 print:0 batch:1
real 3.36
user 2.83
sys 0.52

	hash:oft_sha3 endpoints:4194304 size:32 rekey:131072 init:0 print:0 batch:1
real 5.77
user 5.01
sys 0.76

	hash:oft_sha3 endpoints:4194304 size:32 rekey:262144 init:0 print:0 batch:1
real 11.56
user 9.97
sys 1.58

	hash:oft_sha3 endpoints:4194304 size:32 rekey:524288 init:0 print:0 batch:1
real 23.55
user 20.31
sys 3.23

	hash:oft_sha3 endpoints:4194304 size:32 rekey:1048576 init:0 print:0 batch:1
real 46.45
user 40.12
sys 6.31

	hash:oft_sha3 endpoints:4194304 size:32 rekey:2097152 init:0 print:0 batch:1
real 92.62
user 80.24
sys 12.36

	hash:oft_sha3 endpoints:4194304 size:32 rekey:4194304 init:0 print:0 batch:1
real 185.42
user 160.52
sys 24.87
\nKEYSIZE

	hash:oft_sha3 endpoints:4194304 size:1 rekey:1 init:0 print:0 batch:1
real 0.00
user 0.00
sys 0.00

	hash:oft_sha3 endpoints:4194304 size:2 rekey:1 init:0 print:0 batch:1
real 0.00
user 0.00
sys 0.00

	hash:oft_sha3 endpoints:4194304 size:4 rekey:1 init:0 print:0 batch:1
real 0.00
user 0.00
sys 0.00

	hash:oft_sha3 endpoints:4194304 size:8 rekey:1 init:0 print:0 batch:1
real 0.00
user 0.00
sys 0.00

	hash:oft_sha3 endpoints:4194304 size:16 rekey:1 init:0 print:0 batch:1
real 0.00
user 0.00
sys 0.00

	hash:oft_sha3 endpoints:4194304 size:32 rekey:1 init:0 print:0 batch:1
real 0.00
user 0.00
sys 0.00

	hash:oft_sha3 endpoints:4194304 size:64 rekey:1 init:0 print:0 batch:1
real 0.00
user 0.00
sys 0.00
