--------------------- Cluster Manager health check ----------------------
Checking assigned node set: node004.cm.cluster
All health checks succeeded.
-----------------------------------------------------------------------
Tue May  3 22:54:08 IST 2016
gcc  -o ./build/main ./src/*.c ./third_party/*.c -lm -std=c11 -g -O0 -Wall -Wextra -Werror 
\nREKEY

	hash:oft_blake2s endpoints:1048576 size:32 rekey:0 init:0 print:0 batch:0
real 0.00
user 0.00
sys 0.00

	hash:oft_blake2s endpoints:1048576 size:32 rekey:100000 init:0 print:0 batch:0
real 6.71
user 5.79
sys 0.91

	hash:oft_blake2s endpoints:1048576 size:32 rekey:200000 init:0 print:0 batch:0
real 13.71
user 11.92
sys 1.78

	hash:oft_blake2s endpoints:1048576 size:32 rekey:300000 init:0 print:0 batch:0
real 18.82
user 16.49
sys 2.32

	hash:oft_blake2s endpoints:1048576 size:32 rekey:400000 init:0 print:0 batch:0
real 25.36
user 22.25
sys 3.10

	hash:oft_blake2s endpoints:1048576 size:32 rekey:500000 init:0 print:0 batch:0
real 29.78
user 26.08
sys 3.69

	hash:oft_blake2s endpoints:1048576 size:32 rekey:600000 init:0 print:0 batch:0
real 36.75
user 32.22
sys 4.52

	hash:oft_blake2s endpoints:1048576 size:32 rekey:700000 init:0 print:0 batch:0
real 42.64
user 37.32
sys 5.31

	hash:oft_blake2s endpoints:1048576 size:32 rekey:800000 init:0 print:0 batch:0
real 48.47
user 42.35
sys 6.11

	hash:oft_blake2s endpoints:1048576 size:32 rekey:900000 init:0 print:0 batch:0
real 53.46
user 46.90
sys 6.55

	hash:oft_blake2s endpoints:1048576 size:32 rekey:1000000 init:0 print:0 batch:0
real 57.17
user 50.12
sys 7.04
