--------------------- Cluster Manager health check ----------------------
Checking assigned node set: node004.cm.cluster
All health checks succeeded.
-----------------------------------------------------------------------
Thu May  5 16:00:36 IST 2016
gcc  -o ./build/main ./src/*.c ./third_party/*.c -lm -std=c11 -g -Ofast -Wall -Wextra -Werror 

REKEY TEN
#@time -p ./build/main 4194304 4194304 20
#@time -p ./build/main 4194304 4194304 24

	hash:oft_sha2 endpoints:4194304 size:28 rekey:4194304 init:0 print:0 batch:1
real 27.81
user 8.57
sys 19.24

	hash:oft_sha2 endpoints:4194304 size:32 rekey:4194304 init:0 print:0 batch:1
real 33.83
user 8.72
sys 25.09
#@time -p ./build/main 4194304 4194304 36
#@time -p ./build/main 4194304 4194304 40
#@time -p ./build/main 4194304 4194304 44

	hash:oft_sha2 endpoints:4194304 size:48 rekey:4194304 init:0 print:0 batch:1
real 40.08
user 8.77
sys 31.30
#@time -p ./build/main 4194304 4194304 52
#@time -p ./build/main 4194304 4194304 56
#@time -p ./build/main 4194304 4194304 60

	hash:oft_sha2 endpoints:4194304 size:64 rekey:4194304 init:0 print:0 batch:1
real 57.68
user 14.65
sys 43.01
